…
``` r
#Show countries
country_vals %>%
  arrange(-abs(diff)) 
```

    ## # A tibble: 31 × 4
    ## # Groups:   country [31]
    ##    country           estimate mx_ratio_stmf    diff
    ##    <chr>                <dbl>         <dbl>   <dbl>
    ##  1 Slovenia             1.17          1.14   0.0343
    ##  2 Slovakia             1.22          1.18   0.0326
    ##  3 Poland               1.24          1.21   0.0318
    ##  4 Luxembourg           1.07          1.04   0.0305
    ##  5 Republic of Korea    0.912         0.940 -0.0294
    ##  6 Iceland              0.921         0.899  0.0251
    ##  7 Denmark              0.960         0.984 -0.0243
    ##  8 Czech Republic       1.24          1.21   0.0204
    ##  9 Israel               1.05          1.03   0.0167
    ## 10 Greece               1.05          1.07  -0.0164
    ## # … with 21 more rows
…
